<?xml version="1.0" encoding="utf-8"?>
<!-- Generator: Adobe Illustrator 20.0.0, SVG Export Plug-In . SVG Version: 6.00 Build 0)  -->
<svg version="1.1" id="Layer_1" xmlns="http://www.w3.org/2000/svg" xmlns:xlink="http://www.w3.org/1999/xlink" x="0px" y="0px"
	 width="146px" height="132px" viewBox="0 0 146 132" style="enable-background:new 0 0 146 132;" xml:space="preserve">
<style type="text/css">
	.st0{fill:#FFFFFF;}
	.st1{fill:#4E8C7B;}
	.st2{fill-rule:evenodd;clip-rule:evenodd;fill:#4E8C7B;}
	.st3{opacity:0.35;}
	.st4{clip-path:url(#SVGID_2_);fill:#4E8C7B;}
</style>
<path class="st0" d="M128.1,74.9l9.7-6l-10.2-5l8.2-7.9l-11-2.9l6.5-9.4l-11.4-0.6l4.5-10.5l-11.3,1.7l2.3-11.2l-10.7,3.9l0-11.4
	l-9.7,6l-2.3-11.1l-8.3,7.8L79.9,8.1l-6.5,9.3l-6.5-9.3l-4.5,10.5l-8.3-7.8l-2.3,11.1l-9.7-6l0,11.4l-10.7-3.9l2.3,11.2l-11.3-1.7
	l4.5,10.5l-11.4,0.6l6.5,9.4L11,56l8.2,7.9L9,68.9l9.7,6l-9,7l10.7,4L13,94.5l11.2,1.7l-5.5,10l10-0.5c-0.4,0.2-1.7,0.8-1.7,0.8
	l0.3,1.1c1.8,6,4.9,11.5,9,16.2c5-2.6,10.5-5,15.8-6.5c6.4,3,13.6,4.7,21.2,4.7c7.6,0,14.8-1.7,21.3-4.7c5.1,1.5,10.6,3.7,15.7,6.4
	l0.4-0.4c4-4.9,6.9-10.3,8.7-16.3l0.2-0.5c0,0-1.3-0.6-1.7-0.8l10,0.5l-5.5-10l11.2-1.7l-7.4-8.6l10.7-4L128.1,74.9z"/>
<path class="st1" d="M124.2,74.4l9.1-5.7l-9.6-4.7l7.8-7.4l-10.4-2.7l6.1-8.8l-10.7-0.6l4.2-9.9l-10.6,1.6l2.1-10.5l-10.1,3.7
	l0-10.7l-9.1,5.7L90.9,14l-7.8,7.4l-4.2-9.8l-6.1,8.8l-6.1-8.8l-4.2,9.8L54.6,14l-2.2,10.5l-9.1-5.7l0,10.7l-10.1-3.7l2.1,10.5
	l-10.6-1.6l4.2,9.9l-10.7,0.6l6.1,8.8l-10.4,2.7l7.8,7.4l-9.6,4.7l9.1,5.7L12.8,81l10,3.7l-7,8.1l10.6,1.6l-5.2,9.4l10.7-0.5l0,0
	c0.7-0.3,1.4-0.6,2.1-0.9C26.1,92.4,22,79.2,24,64.9C27,43,45.1,25.5,67.2,23C96.9,19.8,122,42.9,122,72c0,11.5-4,22.1-10.6,30.5
	c0.7,0.3,1.4,0.6,2.1,0.9l0,0l10.7,0.5l-5.2-9.4l10.6-1.6l-7-8.1l10-3.7L124.2,74.4z"/>
<path class="st2" d="M54.8,117.7c5.9,2.5,12.3,3.8,19.1,3.8c6.8,0,13.3-1.4,19.2-3.9c-6.2-1.6-12.5-2.4-18.8-2.4
	C67.8,115.3,61.2,116.1,54.8,117.7 M73.9,23.3c-27.1,0-49.2,22-49.2,49.2c0,11.7,4.1,22.4,10.8,30.8c4.8-2,9.8-3.5,14.8-4.7
	c-7.1-6.4-11.5-15.7-11.5-26c0-6.4,1.7-12.5,4.8-17.7c-0.5-0.7-0.6-1.7-0.2-2.6c0.3-0.7,0.9-1.3,1.6-1.6c0.5-0.2,1.1-0.3,1.7-0.2
	c1.5-1.9,3.2-3.6,5.1-5.1c0.3-0.4,0.7-0.7,1.2-0.9c5.9-4.4,13.2-7,21.1-7c19.4,0,35.1,15.7,35.1,35.1c0,10.3-4.5,19.6-11.6,26
	c5,1.2,9.9,2.8,14.7,4.7c6.8-8.4,10.8-19.1,10.8-30.8C123,45.3,101,23.3,73.9,23.3"/>
<path class="st2" d="M118.9,108c-11.5-5.9-24.3-9.5-37.3-10.6c-0.3,0.3-0.7,0.4-1.1,0.6c-1,0.3-2.2,0-2.9-0.7c0,0-0.1-0.1-0.2-0.1
	c-1.3-0.1-2.7-0.1-4-0.1c-0.1,0-0.2,0-0.3,0c0.8,0.8,1.1,1.9,0.6,3c-0.6,1.4-2.3,2.1-3.8,1.5c-1-0.4-1.7-1.2-1.9-2.2l0-0.1l0-0.1
	c0-0.6-0.1-1.1-0.6-2C53.6,98.1,40,101.8,27.8,108l0,0c1.8,5.5,4.5,10.6,8.1,15.2l0,0c12-6.1,25-9.3,37.8-9.3
	c12.4,0,24.8,3.1,37,9.3l0,0C114.4,118.7,117.1,113.6,118.9,108L118.9,108z"/>
<path class="st0" d="M46,108.2c-0.7-0.5-1.7-0.5-2.5-0.2c-1.5,0.6-2.1,2.1-1.5,3.5c0.5,1.5,2,2.1,3.5,1.6c0.8-0.3,1.4-1,1.7-1.8
	l1.1,2.9c-0.7,0.5-1.2,0.9-2,1.2c-1.3,0.5-2.7,0.5-4-0.1c-1.4-0.5-2.3-1.6-2.8-3c-0.5-1.3-0.5-2.7,0.1-3.9c0.6-1.3,1.7-2.3,3-2.8
	c0.8-0.3,1.6-0.4,2.4-0.4L46,108.2z"/>
<polygon class="st0" points="50.6,105.7 51.1,107.3 53.9,106.5 54.4,108.6 51.6,109.4 52.1,111.1 55,110.2 55.6,112.4 50.2,113.8 
	47.6,104.3 53,102.8 53.6,104.9 "/>
<path class="st0" d="M65.6,110.5l-3.2,0.5l-3-3.4l0,0l0.6,3.8l-2.5,0.4l-1.6-9.8l3.8-0.6c1.9-0.3,3.6,0.4,3.9,2.4
	c0.2,1.4-0.3,2.6-1.7,3.1L65.6,110.5z M59.1,106.1l0.2,0c0.8-0.1,1.7-0.4,1.6-1.5c-0.2-1.1-1.1-1.1-2-0.9l-0.2,0L59.1,106.1z"/>
<polygon class="st0" points="70.6,110.3 68,110.4 67.6,102.7 65.5,102.8 65.4,100.7 72.2,100.3 72.3,102.5 70.2,102.6 "/>
<rect x="70.4" y="104" transform="matrix(1.952118e-02 -0.9998 0.9998 1.952118e-02 -31.3569 178.6463)" class="st0" width="9.9" height="2.6"/>
<polygon class="st0" points="81.9,102.9 81.7,104.5 84.5,104.8 84.3,107 81.5,106.7 81.2,110.6 78.6,110.4 79.5,100.5 85.2,101 
	85,103.1 "/>
<rect x="83.1" y="105.1" transform="matrix(0.1536 -0.9881 0.9881 0.1536 -30.6059 177.1142)" class="st0" width="9.9" height="2.6"/>
<polygon class="st0" points="94.8,104.9 94.4,106.5 97.3,107.1 96.8,109.2 93.9,108.6 93.6,110.3 96.6,111 96.1,113.1 90.6,111.9 
	92.7,102.2 98.3,103.4 97.8,105.5 "/>
<path class="st0" d="M101,104.1l3.5,1.1c2.6,0.9,4.1,3.6,3.3,6.3c-0.9,2.7-3.7,4-6.3,3.2l-3.5-1.1L101,104.1z M101.1,112.3l0.6,0.2
	c1.5,0.5,3,0.1,3.6-1.8c0.6-1.7-0.3-3-1.8-3.5l-0.6-0.2L101.1,112.3z"/>
<path class="st1" d="M99.4,68c-0.3,0-0.4,0-0.7,0c0,0.4,0,0.5,0,0.8c0,1,0,1.4,0,1.7l0,0c-0.2,0-0.2,0-0.5,0l0,0c0-0.6,0-1.1,0-1.7
	c0-0.4,0-0.6,0-0.8c-0.4,0-0.4,0-0.8,0l0,0c0-0.1,0-0.2,0-0.3l0,0c0.3,0,0.8,0,1,0c0.3,0,0.6,0,0.9,0l0,0
	C99.5,67.8,99.5,67.8,99.4,68L99.4,68z"/>
<path class="st1" d="M102.6,67.6c0,0.9,0.1,1.9,0.1,2.8l0,0c-0.2,0-0.2,0-0.4,0l0,0c0-0.5,0-0.6,0-1l0-0.4c0-0.3,0-0.9,0-1.1
	c-0.1,0.2-0.1,0.4-0.3,1l-0.2,0.6c-0.1,0.4-0.2,0.6-0.3,0.9l0,0c-0.2,0-0.2,0-0.5,0l0,0c0-0.1,0-0.1-0.1-0.2c0-0.1-0.2-0.7-0.3-0.9
	l-0.2-0.6c-0.2-0.6-0.2-0.6-0.2-0.9c0,0.4,0,0.5,0,0.9l0,0.7c0,0.5,0,0.6,0,0.9l0,0c-0.2,0-0.2,0-0.4,0l0,0c0-0.1,0-0.2,0-0.2
	c0-0.5,0.1-1,0.1-1.4c0-0.7,0-0.8,0-1.1l0,0c0.3,0,0.4,0,0.6,0l0,0c0.1,0.3,0.1,0.6,0.2,0.8l0.4,1.6l0.5-1.7
	c0.2-0.5,0.2-0.5,0.2-0.8l0,0C102.3,67.6,102.3,67.6,102.6,67.6L102.6,67.6z"/>
<path class="st0" d="M35.6,74.2l0.3,2.4l-2.7,2.3l0,0l2.9-0.4l0.3,2l-7.6,1l-0.4-2.9c-0.2-1.5,0.4-2.7,2-2.9c1-0.1,2,0.3,2.4,1.4
	L35.6,74.2z M32,79.1l0-0.2c-0.1-0.6-0.3-1.3-1.1-1.2c-0.8,0.1-0.8,0.9-0.8,1.5l0,0.2L32,79.1z"/>
<path class="st0" d="M34.4,70.6l1.3,0.6l-0.2,2.1l-7.4-3.5l0.2-2.2l7.8-2.2L36,67.5l-1.4,0.4L34.4,70.6z M30.6,68.9L30.6,68.9l2.4,1
	l0.1-1.6L30.6,68.9z"/>
<rect x="32.2" y="58.1" transform="matrix(0.2519 -0.9678 0.9678 0.2519 -35.0377 78.4548)" class="st0" width="2" height="7.6"/>
<polygon class="st0" points="30.8,56.4 31.7,54.6 37.4,53.3 37.4,53.2 33.2,51.3 34.1,49.5 41,52.7 40.1,54.5 34.3,55.8 34.3,55.8 
	38.6,57.8 37.7,59.6 "/>
<polygon class="st0" points="38.8,45.6 39.9,46.4 41.2,44.7 42.5,45.7 41.2,47.4 43.6,49.3 42.4,50.8 36.3,46.2 39,42.7 40.3,43.7 
	"/>
<path class="st0" d="M50,37.5c1.6,1.9,1.4,4.4-0.5,5.9c-1.9,1.6-4.4,1.4-5.9-0.5c-1.5-1.8-1-4.3,0.7-5.7
	C45.9,35.8,48.5,35.7,50,37.5 M45.1,41.6c0.8,1,2.2,1.1,3.1,0.4c0.9-0.8,1-2.1,0.2-3.1c-0.7-0.8-2-0.9-2.9-0.2
	C44.6,39.4,44.4,40.8,45.1,41.6"/>
<path class="st0" d="M59.9,36.7l-2.2,1.1l-3-1.8l0,0l1.3,2.6l-1.8,0.9l-3.4-6.8l2.7-1.3c1.3-0.7,2.7-0.6,3.4,0.9
	c0.5,0.9,0.4,2-0.5,2.7L59.9,36.7z M54.2,34.9l0.2-0.1c0.6-0.3,1.2-0.7,0.8-1.5c-0.4-0.7-1.1-0.5-1.7-0.2l-0.2,0.1L54.2,34.9z"/>
<polygon class="st0" points="61.8,30 62.1,31.2 64.3,30.6 64.7,32.2 62.6,32.8 62.9,34.1 65.2,33.5 65.6,35.1 61.5,36.3 59.4,28.9 
	63.6,27.7 64,29.4 "/>
<path class="st0" d="M71.5,28.6c-0.4-0.3-0.9-0.4-1.4-0.4c-0.4,0-0.8,0.3-0.8,0.7c0,0.4,0.6,0.6,0.9,0.6l0.5,0.1
	c1.1,0.2,2,0.7,2.1,1.9c0.1,0.8,0,1.6-0.6,2.1c-0.5,0.6-1.3,0.8-2.1,0.9c-1,0.1-1.9-0.1-2.8-0.6l0.7-1.7c0.5,0.4,1.2,0.7,1.8,0.6
	c0.5,0,0.9-0.3,0.9-0.9c-0.1-0.6-0.8-0.7-1.3-0.8c-1.3-0.2-2.1-0.5-2.3-2c-0.1-1.5,0.9-2.7,2.4-2.8c0.8-0.1,1.7,0.1,2.4,0.4
	L71.5,28.6z"/>
<polygon class="st0" points="78.1,34.5 76.1,34.3 76.6,28.4 75,28.2 75.1,26.6 80.4,27 80.2,28.7 78.6,28.5 "/>
<path class="st0" d="M88.1,35.5l-1,1l-1.9-0.8l5.7-5.9l2,0.8l-0.3,8.2L90.6,38l0.1-1.4L88.1,35.5z M91,32.4L91,32.4l-1.7,1.9
	l1.5,0.6L91,32.4z"/>
<polygon class="st0" points="96.5,39.5 98.5,40.9 97.5,42.3 93.9,39.8 98.2,33.5 99.8,34.6 "/>
<polygon class="st0" points="101.4,43.5 103.1,45.1 102,46.3 98.8,43.4 104,37.8 105.5,39.1 "/>
<rect x="102.8" y="45" transform="matrix(0.7764 -0.6303 0.6303 0.7764 -5.1497 77.4828)" class="st0" width="7.6" height="2"/>
<path class="st0" d="M107.8,52l-1.4,0.2l-1-1.8l8.1-1.2l1.1,1.9l-5.3,6.2l-1-1.8l0.9-1.1L107.8,52z M112,51.3L112,51.3l-2.5,0.5
	l0.8,1.4L112,51.3z"/>
<polygon class="st0" points="117.3,56.9 117.8,58.8 114.2,63.6 114.2,63.6 118.7,62.4 119.3,64.3 111.9,66.3 111.4,64.4 114.9,59.6 
	114.9,59.6 110.4,60.8 109.9,58.9 "/>
<path class="st0" d="M117.3,73.9c0.5-0.4,0.8-1.1,0.8-1.8c0-1.2-1-2-2.2-2c-1.2,0-2,0.9-2,2.1c0,0.6,0.4,1.3,0.9,1.7l-2.4,0.1
	c-0.2-0.6-0.4-1.1-0.4-1.7c0-1.1,0.3-2.1,1-2.9c0.7-0.9,1.7-1.3,2.8-1.3c1,0,2.1,0.3,2.8,1c0.8,0.7,1.3,1.8,1.3,2.9
	c0,0.6-0.1,1.2-0.3,1.8L117.3,73.9z"/>
<polygon class="st0" points="117.6,79.2 116.4,79 116,81.2 114.4,80.9 114.7,78.7 113.4,78.5 113.1,80.8 111.4,80.6 112.1,76.3 
	119.6,77.5 118.9,81.8 117.3,81.5 "/>
<path class="st2" d="M95.9,78c0,0,1.1,0.4,1.5,0.5c1.1,0.3,2.3-0.3,2.7-1.4c0.5-1.2-0.1-2.5-1.3-3c-1.1-0.4-2.2,0-2.8,0.9
	c-0.8,0.9-3.6,2-4.9,1.2c-0.4-0.9,0.5-1.5,1.5-2.1c1.4-0.9,1.7-2.1,0.6-3.1c-0.4-0.3-1-0.6-1.6-0.5c-0.9,0.1-1.5,0.9-1.6,1.8
	c-0.1,0.9-0.6,3-3.2,3.3c-2,0.2-2.6,0.5-2.7-0.7c0-1.3,0.2-2.6,0.7-3.9c1.1-2.6,2.4-3.5,4.2-5.2l3.6-2.8c1.2-1.2,2.7-1.8,3.4-3.4
	c0.3-0.7,0.6-1.8,0.2-2.6c0.9-1,1.8-2.7,2-3.5c0.3-1.8-0.2-3.7-1.9-4.1c-0.1,0-0.3-0.1-0.3-0.1c-1.7-0.6-3.4-0.2-5.1-0.8
	c-2.5-1-2.9-3.1-6.2-3.5c-2.4-0.3-3.8,1.2-5.1,3.1c-0.5,0.8-1,1.6-1.8,2.1c-1.5,1-3.6,1.2-5.3,1.4c-4.9,0.7-7.7,2.7-9.9,4.6
	c-1.2,1.1-6.6,6.5-8,7.5c-1.6-0.1-2.9-1-2.2-3.2c0.7-2.8,3-3.1,4-2.9c2.4,0.3,2.8-1.6,2.8-1.6c0.3-0.7,0.1-1.8-1.2-2.3
	c-1.8-0.8-2.6,0.9-2.9,1.1c-0.2,0.2-1,1.8-2.4,1.6c-0.4-0.5-0.7-1.6-0.1-2.9c1.5-3.5,2.8-3.9,3.3-5.6c0.3-1.1-0.1-2.4-1.4-2.8
	c-1.3-0.4-2.6,0.3-3,1.5c-0.4,1.1-0.2,4.1-1.1,6.7c-0.3,1-1.1,3.7-2.1,2.4c-0.6-0.8-0.7-1.5-0.7-2.3c0.1-0.8-0.3-1.6-1.1-2
	c-1.1-0.5-2.5,0.1-2.9,1.2c-0.4,1,0,2,0.6,2.5c0.9,0.8,2.3,0.1,2.9,2.2c0.4,1.5,0.6,2.6-0.3,5.1C46,65.5,46,69,47.1,70.7
	c1.5,2,3,1.8,3,1.8c-0.7,2.4-1.1,4.2,2.1,6.6c0.5,0.4,3.1,1.7,4.3,1.7c-1.1,2.9-3.6,1.4-4.6,4.1c-1.4,3.9,5.5,5.9,9.1,7.2
	c4.3,1.5,5.4,1.8,6.7,3.8c1.1,1.7,1.3,2.5,1.4,3.5c0.2,0.7,0.7,1.4,1.5,1.7c1.2,0.5,2.5,0,3-1.1c0.4-1.1-0.2-2.4-1.4-2.9
	c-1.3-0.5-1.5-1-1.2-1.9c1.5-1.1,5.5,0,7.5,1.7c1.1,1,3.3,0.9,3.9-0.9c0.3-0.8,0.1-2.1-1.4-2.7c-1.2-0.5-2.3,0.2-3.3,0.2
	c-2,0-3.8-1-4.6-1.7c0-0.1,0.3-1.6,2.5-1.4c1.1,0.1,2.1-0.6,2.3-1.8c0.1-0.6-0.2-1.3-1.2-1.7c-0.8-0.3-1.7,0-2.2,0.6
	c-0.6,0.5-0.6,1.2-1.9,1.9c-1.2,0.6-1.7,0.7-2.9,0.6c-0.6-0.1-2-0.5-2.6-1.1c-0.3-0.4-0.3-1-0.3-1c-0.3,0,6-1.2,7.5-3.3
	c2-2.7,0.1-4.4-2.5-5.6c2.1-1,5.4-3.3,6.6-5.1c0.3,0.1,0.7,1.9,0.8,2.5l0.3,3c0.8,2.6,3.6,0.4,6.2,0.7c2.2,0.3,2.8,0.6,4.1,1.8
	c0.7,0.6,1,1.8,1.7,2.6c0.3,0.5,0.9,0.9,1.5,0.9c1.1,0.1,2.1-0.8,2.1-1.9c0.1-0.9-0.5-1.7-1.3-2c-1.8-0.4-3.7-1.6-2.1-2.6
	C93.4,77.7,95.3,77.9,95.9,78 M89.8,57.7c-1,0.7-3.1,0.8-4.8,0c-0.6,0.2-0.9,0.3-1.2,0.3c-0.3,0-0.3-0.1-0.3-0.3
	c-0.1-0.4,0-1.6,0.5-2.5c0.7-1.2,1.6-1.8,2.8-2.1c1.3-0.3,2.1,0,2.7,0.4C91,54.3,91.2,56.6,89.8,57.7"/>
<path class="st2" d="M89.2,56.4c0,0-0.3-0.3-0.4-0.4c-1-0.7-2.1-0.5-3,0.1c-0.2,0.1-0.2-0.2-0.2-0.3c0.4-1.8,2.3-1.8,2.8-1.6
	C89.2,54.5,89.5,55.4,89.2,56.4"/>
<g class="st3">
	<g>
		<defs>
			<rect id="SVGID_1_" x="63.8" y="77.9" width="11" height="3.6"/>
		</defs>
		<clipPath id="SVGID_2_">
			<use xlink:href="#SVGID_1_"  style="overflow:visible;"/>
		</clipPath>
		<path class="st4" d="M69.5,80.9c1.5,0.5,3.6-1.1,5.3,0.6c-0.5-1-1.7-1.8-3.1-2.4c-2.3-1-5-1.3-7.9-0.9
			C68.2,78.2,68,80.3,69.5,80.9"/>
	</g>
</g>
</svg>
